internode_distance,el_fidelity,alpha,el_psuc,alpha,sq,T1,T2
25,0.9681426996181608,0.003003003003003003,0.0024434370529679973,0.499999999999992,0.9107340475793451,36000000000000.0,1000000000.0
50,0.9658630458353884,0.0045045045045045045,0.0012975783426089724,0.499999999999992,0.9107340475793451,36000000000000.0,1000000000.0
100,0.9584928231741393,0.008008008008008008,0.0003658284201232597,0.499999999999992,0.9107340475793451,36000000000000.0,1000000000.0
200,0.9204163287274016,0.028528528528528493,2.910725898198144e-05,0.499999999999992,0.9107340475793451,36000000000000.0,1000000000.0
400,0.6019725647609528,0.25725725725725473,2.3334023133431288e-07,0.499999999999992,0.9107340475793451,36000000000000.0,1000000000.0
800,0.4871708245126285,0.499999999999992,5.000729713056162e-08,0.499999999999992,0.9107340475793451,36000000000000.0,1000000000.0
